<!-- Generated by IcoMoon.io -->
<svg version="1.1" xmlns="http://www.w3.org/2000/svg" width="19" height="32" viewBox="0 0 19 32">
<title>arrow</title>
<path fill="#fff" d="M0 27.931l3.903 4.068 15.344-15.999-15.347-15.999-3.903 4.069 11.447 11.93z"></path>
</svg>
