<?xml version="1.0" encoding="utf-8"?>
<svg xmlns="http://www.w3.org/2000/svg"
	xmlns:xlink="http://www.w3.org/1999/xlink"
	width="1920px" height="785px" viewBox="0 0 1920 785">
<path fillRule="evenodd" d="M 1929 785C 1929 785 1929 27.1 1929 27.1 1928.42 27.37 1927.55 27.72 1926.03 28.18 1925.57 27.83 1925.11 27.49 1924.66 27.14 1922.53 27.92 1922.33 28.37 1917.63 28.4 1921.52 27.75 1914.71 26.79 1919.07 25.89 1909.32 23.31 1904.35 27.34 1899.98 24.04 1895.34 26.51 1908.43 25.92 1905.87 26.38 1907.95 27.35 1902.05 28.21 1898.97 27.79 1895.83 27.59 1893.78 24.12 1885.87 23.8 1886.66 23.85 1886.72 23.65 1887.5 23.7 1884.57 22.88 1881.66 24.36 1878.08 23.08 1875.97 24.61 1873.37 22.78 1872.69 24.82 1875.12 24.77 1877.54 24.72 1879.97 24.67 1875.83 25.02 1871.86 27.26 1865.14 25.79 1865.69 25.39 1867.73 24.94 1869.13 24.69 1867.17 23.99 1865.29 24.92 1863.27 24.21 1863.95 22.16 1872.1 24.15 1876.58 22.78 1874.5 21.81 1868.18 23.9 1870.49 21.76 1867.18 24.46 1862.72 21.05 1857.26 22.98 1857.4 22.57 1857.53 22.17 1857.67 21.76 1856.81 21.91 1855.03 22.42 1853.47 22.32 1854.44 21.83 1855.4 21.33 1856.37 20.84 1851.97 22.02 1848.06 19.27 1843.87 19.83 1852.58 20.18 1845.75 21.41 1849.4 22.48 1838.76 23.64 1843.2 19.12 1831.87 19.03 1833.76 19.14 1837.13 20.09 1834.82 20.51 1832.54 20.15 1829.53 19.54 1828.16 18.83 1820.18 18.74 1829.33 20.16 1825.9 20.77 1823.25 19.15 1821.96 21.22 1818.44 21.55 1818.45 21.13 1818.46 20.71 1818.47 20.29 1809.43 19.09 1815.95 22.81 1807.82 21.49 1809 20.95 1810.17 20.42 1811.35 19.89 1809.92 19.98 1808.5 20.07 1807.07 20.16 1807.38 19.69 1807.69 19.23 1808.01 18.76 1803.32 19.63 1801.89 19.29 1797.37 18.7 1798.38 19.63 1796.68 20.96 1792.65 20.83 1789.94 19.97 1794.24 19.69 1788.53 19.64 1789.85 18.9 1791.3 17.97 1793.73 19.24 1794 18.84 1795.04 18.5 1795.32 18.1 1792.39 17.12 1787.9 17.6 1785.83 17.52 1786.63 17.6 1787.57 17.71 1788.05 17.91 1785.27 18.38 1782.49 18.84 1779.71 19.31 1778.43 18.78 1779.48 18.45 1780.52 18.12 1778.84 18.18 1777.66 18.72 1775.19 18.72 1775.87 17.72 1775.76 16.66 1779.27 16.32 1776.62 16.59 1773.98 16.86 1771.34 17.13 1770.83 16.67 1767.35 15.75 1768.39 15.41 1764.05 14.63 1757.59 16.96 1751.84 15.93 1751.53 16.12 1750.92 16.28 1749.68 16.38 1744.25 15.93 1739.48 14.48 1732.97 15.63 1731.78 14.97 1730.58 14.31 1729.38 13.65 1724.32 13.87 1734.25 16.16 1725.81 16.52 1719.83 16.87 1723.65 14.87 1721.58 14.27 1718.58 15.09 1713.36 16.77 1707.95 15.06 1709.77 14.79 1711.18 15.11 1712.88 15.04 1711.5 14.65 1710.13 14.26 1708.75 13.86 1713.85 12.38 1717.46 13.1 1713.61 11.52 1712.88 15.04 1697.38 11.26 1696.67 14.78 1695.77 14.5 1694.86 14.22 1693.95 13.93 1694.74 14 1694.87 13.79 1695.65 13.86 1690.37 11.96 1691.58 16.27 1684.72 15.51 1682.33 15.15 1680.67 14.57 1682.32 14.21 1680.53 14.43 1678.74 14.66 1676.94 14.89 1675.68 14.78 1675.71 14.37 1676.6 14.28 1674.12 14.28 1671.65 14.27 1669.17 14.26 1669.19 14.23 1669.22 14.2 1669.24 14.16 1668.05 14.68 1665.38 15.44 1664.08 15.76 1662.03 15.17 1665.14 15.42 1664.62 14.96 1663.11 15.19 1661.59 15.42 1660.08 15.65 1658.27 14.67 1662.05 13.91 1665.16 14.16 1661.07 10.46 1661.38 14.91 1652.35 12.51 1653.78 12.41 1655.21 12.32 1656.63 12.22 1653.96 10.1 1650.6 10.71 1645.83 9.28 1646.95 9.98 1655.36 12.79 1650.43 13.5 1649.06 13.18 1647.25 12.99 1644.57 13.61 1644.59 12.35 1642 12.57 1638.77 12.52 1638.86 11.97 1638.96 11.41 1639.05 10.86 1635.54 11.22 1635.78 12.08 1633.7 12.76 1629.82 12.46 1629.05 11.13 1628.18 10.01 1621.95 9.52 1632.41 12.24 1625.02 12.29 1619.86 11.47 1616.19 12.03 1609.95 12.81 1606.34 12.11 1610.62 11.81 1609.34 11.29 1608.25 11.7 1607.16 12.11 1606.08 12.51 1605.29 12.46 1605.56 12.05 1605.69 11.85 1602.97 12.28 1605.41 13.51 1601.14 13.82 1599.93 15.62 1592.48 10.84 1587.13 12.75 1585.85 12.23 1587.79 11.75 1587.42 11.09 1580.14 12.22 1581.18 11.88 1575.18 13.53 1573.71 13.16 1572.23 12.79 1570.76 12.41 1570.83 12.38 1570.91 12.35 1571.02 12.33 1570.85 12.33 1570.68 12.34 1570.51 12.35 1570.39 12.32 1570.27 12.29 1570.16 12.26 1570.24 12.29 1570.32 12.33 1570.39 12.36 1569.21 12.43 1568.1 12.63 1567.06 12.87 1567.06 12.8 1567.05 12.73 1567.03 12.66 1566.59 12.84 1565.75 12.98 1564.84 13.04 1565.27 12.78 1565.56 12.54 1565.36 12.37 1565.14 12.18 1564.44 12.53 1563.34 12.92 1562.85 12.28 1562.37 11.65 1561.89 11.01 1561.76 11.25 1561.63 11.5 1561.5 11.74 1558.61 11.26 1555.73 10.77 1552.85 10.29 1546.57 11.97 1541.07 14.56 1531.18 15.02 1533.67 13.73 1531.78 12.8 1531.96 11.19 1534.6 12.99 1539.63 10.7 1544.73 11.21 1542.07 10.95 1542.68 10.19 1543.37 9.94 1540.31 10.37 1537.25 10.79 1534.2 11.22 1534.44 9.9 1532.29 10.16 1529.92 9.54 1531.64 12.21 1523.07 11.07 1519.33 11.76 1519.13 10.88 1520.05 10.01 1524.57 10.36 1519.63 8.23 1518.02 13.23 1513.17 11.41 1514.27 11.42 1514.86 11.58 1515.31 11.14 1512.71 11.84 1506.41 11.03 1507.92 10.31 1508.29 10.32 1508.66 10.32 1509.03 10.33 1501.69 9.8 1486.68 9.64 1485.52 11.84 1485.45 11.55 1486.56 9.18 1487.02 8.75 1484.86 9.9 1482.7 11.05 1480.54 12.2 1480.15 12.23 1479.79 12.27 1479.45 12.33 1477.17 12.01 1473.62 13.46 1475.65 12.6 1474.94 12.65 1474.24 12.69 1473.54 12.74 1473.14 10.88 1473.02 8.94 1476.73 8.39 1474.99 8.07 1472.84 7.69 1469.13 8.26 1470.32 8.57 1472.03 11.11 1470.39 11.23 1465.98 8.98 1467.32 10.01 1461.86 8.04 1463.63 8.5 1461.56 11.44 1458.74 11.26 1459.2 10.83 1458.59 8.3 1459.63 8.02 1457.37 8.89 1455.11 9.76 1452.84 10.63 1454.09 10 1452.79 8.22 1451.35 7.4 1452.06 8 1445.27 7.18 1443.39 7.42 1444.38 7.68 1445.36 7.93 1446.35 8.18 1439.81 7.64 1438.64 10.66 1434.02 11.52 1433.89 11.35 1433.75 11.17 1433.61 10.99 1432.93 11.05 1432.11 11.03 1431.22 10.96 1431.89 9.83 1432.03 7.95 1428.99 7.58 1428.3 8.12 1427 9.2 1425.28 10.41 1423.97 10.34 1422.92 10.39 1422.44 10.74 1421.68 10.11 1420.49 9.72 1419.03 9.47 1421.23 8.51 1423.33 7.66 1424.99 7.11 1422.04 6.35 1424.19 6.07 1419.74 6.03 1418.19 5.18 1422.2 4.87 1423.51 4.86 1420.06 4.6 1416.61 4.33 1413.16 4.07 1413.58 5.84 1405.19 5.62 1405.55 7.1 1409.32 6.59 1413.08 6.08 1416.85 5.57 1417.1 6.64 1414.62 8.17 1411.01 9.11 1407.89 9.16 1404.74 9.31 1402.32 9.19 1402.33 8.19 1404.33 6.66 1404.22 6.2 1403.26 6.78 1397.23 7.18 1396.57 6.73 1397.61 6.45 1398.66 6.16 1399.7 5.87 1395.63 5.11 1392.97 8.03 1388.11 6.23 1386.42 6.08 1383.11 3.84 1382.79 4.87 1384.69 6.33 1385.45 9.84 1385.08 12.3 1383.27 12.24 1381.26 11.97 1379.11 11.69 1379.28 11.23 1379.46 10.77 1379.64 10.31 1379.27 10.31 1378.89 10.3 1378.52 10.3 1378.54 10.74 1378.55 11.18 1378.57 11.61 1376.7 11.37 1374.74 11.13 1372.75 11.02 1372.68 10.92 1372.63 10.82 1372.61 10.71 1373.14 10.76 1373.7 10.86 1374.17 10.98 1373.65 10.79 1373.13 10.64 1372.6 10.51 1372.77 9.09 1377.1 7.54 1375.19 6.4 1375.07 6.87 1373.52 7.43 1372.87 7.6 1371.1 7.15 1373.64 6.13 1369.77 6.25 1369.08 8.02 1361.91 5.91 1367.9 7.72 1364.11 8.13 1363.89 7.25 1359.45 7.22 1360.56 8.17 1357.29 10.04 1353.99 10.97 1353.05 10.94 1352.12 10.84 1351.23 10.66 1351.01 10.45 1350.74 10.25 1350.56 10.13 1347.78 10 1345.47 9.81 1343.31 9.6 1343.2 9.57 1343.09 9.54 1342.98 9.51 1343.04 9.54 1343.11 9.56 1343.17 9.59 1341.84 9.46 1340.56 9.32 1339.27 9.2 1340.77 9.12 1341.96 9.27 1342.98 9.51 1340.44 8.49 1337.6 6.92 1337.88 8.09 1338.11 8.44 1338.34 8.79 1338.57 9.13 1336.39 8.93 1334.13 8.76 1331.43 8.7 1330.78 8.25 1327.3 7.65 1328.81 6.92 1327.76 7.21 1326.79 7.79 1324.56 7.78 1320.28 6.14 1329.53 7.65 1326.29 5.73 1325.98 6.76 1320.49 7.03 1317.3 7.6 1318.24 9.22 1324.63 8.07 1327.82 7.5 1327.81 8.53 1326.57 9.56 1324.49 10.45 1321.62 10.78 1317.46 10.98 1316.03 12.15 1314.34 11.93 1312.65 11.71 1311.05 11.85 1311.19 11.61 1311.36 11.45 1311 11.55 1310.3 11.51 1309.65 11.49 1309.05 11.49 1308.86 11.16 1308.67 10.84 1308.49 10.51 1307.53 10.9 1306.56 11.29 1305.6 11.67 1304.43 11.82 1303.48 12.04 1302.64 12.29 1300.89 11.66 1299.99 11.18 1300.63 10.57 1301.04 10.61 1301.45 10.64 1301.87 10.64 1301.51 10.57 1301.15 10.5 1300.79 10.44 1301.08 10.23 1301.52 10.01 1302.18 9.75 1301.29 9.96 1300.53 10.13 1299.87 10.27 1299.18 10.14 1298.49 10.01 1297.8 9.88 1299.37 9.45 1302.64 9.17 1304.42 9.61 1301.33 8.28 1285.36 8.96 1276.68 7.62 1275.13 8.06 1272.45 8.49 1273.7 9.08 1274.62 9.03 1275.54 8.99 1276.46 8.94 1277.89 9.62 1275.99 10 1274.74 10.31 1268.38 9.98 1259.83 10 1252.25 9.38 1252.68 9.07 1253.11 8.77 1253.53 8.46 1252.77 8.36 1252 8.26 1251.23 8.16 1251.5 8.56 1251.76 8.96 1252.03 9.36 1249.83 9.18 1247.71 8.94 1245.76 8.63 1247.27 10.55 1244.6 9.5 1242.24 9.01 1243.35 8.59 1244.18 8.1 1243.81 7.41 1242.38 7.61 1240.94 7.8 1239.51 8 1239.44 7.7 1241 7.26 1239.81 6.97 1239.73 7.25 1239.34 7.52 1238.75 7.74 1233.21 8.22 1230.04 6.91 1226.4 7.73 1226.22 7.67 1225.92 7.6 1225.49 7.55 1225.22 7.62 1224.95 7.62 1224.67 7.62 1225.07 7.33 1225.71 7.11 1225.31 6.85 1224.78 6.99 1223.23 7.43 1222.55 6.99 1221.9 6.55 1223.52 6.4 1224.56 6.11 1218.63 6.11 1217.41 7.85 1216.84 9.7 1214.44 9.34 1211.91 9.33 1209.36 10.41 1207.91 9.91 1210.29 9.66 1210.02 9.16 1210.07 9.16 1210.12 9.16 1210.18 9.15 1210.13 9.15 1210.07 9.15 1210.01 9.14 1209.98 9.11 1209.95 9.07 1209.89 9.03 1209.83 9.06 1209.77 9.09 1209.71 9.12 1206.76 8.91 1197.09 8.09 1195.83 9.34 1192.22 9.19 1189.13 8.91 1185.74 8.58 1185.51 8.44 1185.26 8.3 1184.98 8.16 1184.76 8.22 1184.57 8.33 1184.29 8.44 1183.48 8.36 1182.65 8.27 1181.78 8.19 1181.97 8.06 1182.28 7.92 1182.25 7.74 1181.9 7.84 1181.38 7.97 1180.96 8.11 1178.64 7.89 1176.07 7.66 1173.05 7.45 1173.36 7.87 1173.67 8.28 1173.98 8.7 1171.22 8.49 1170.65 8.09 1169.36 7.76 1166.16 9.59 1177.12 7.99 1174.2 10.02 1174.17 10 1174.14 9.99 1174.12 9.97 1174.12 9.96 1174.13 9.95 1174.13 9.95 1174.1 9.94 1174.08 9.94 1174.06 9.93 1170.2 7.49 1154.68 9.63 1152.27 6.77 1148.02 6.69 1153.5 8.22 1149.25 8.14 1148.88 7.87 1148.5 7.61 1148.13 7.35 1147.77 7.67 1147.41 8 1147.04 8.33 1144.25 8.12 1142.86 7.13 1142.77 6.47 1143.45 6.56 1144.7 6.32 1145.42 6.27 1143.61 5.79 1141.06 5.83 1138.8 5.95 1138.59 5.9 1138.39 5.85 1138.2 5.83 1137.55 5.58 1139.23 5.47 1140.14 5.31 1135.12 4.21 1136.14 5.2 1135.94 6.13 1135.27 6.17 1134.72 6.19 1134.34 6.16 1134.84 6.23 1135.35 6.3 1135.85 6.36 1135.78 6.5 1135.67 6.63 1135.49 6.75 1134.67 6.77 1133.84 6.78 1133.01 6.79 1132.83 5.95 1134.1 4.96 1130.79 4.78 1128.85 4.03 1119.39 7.49 1114.08 5.72 1114.63 6.05 1115.19 6.38 1115.32 6.69 1112.78 6.7 1110.26 6.74 1107.83 6.86 1104.52 6.25 1101.05 5.68 1098.77 6.96 1098.25 6.76 1098.05 6.58 1098.03 6.41 1095.69 6.79 1091.21 7.04 1088.24 7.6 1087.48 7.6 1086.63 7.62 1085.65 7.66 1085.76 7.61 1085.88 7.57 1085.99 7.52 1085.75 7.6 1085.49 7.66 1085.22 7.73 1083.67 6.55 1080.53 6.59 1077.24 6.89 1076.72 6.64 1076.6 6.39 1077.69 6.14 1071.66 6.82 1071.51 6.98 1070.48 7.58 1067.98 7.73 1066.2 7.52 1066.24 6.22 1062.99 6.25 1059.75 6.28 1056.5 6.32 1056.59 6.18 1056.68 6.05 1056.76 5.91 1051.71 5.64 1049.3 6.2 1047.4 6.93 1046.7 7.01 1046.03 7.07 1045.39 7.09 1045.37 6.9 1045.8 6.72 1045.88 6.59 1044.02 6.4 1042.51 6.26 1041.21 6.17 1041.06 6.08 1040.91 5.99 1040.76 5.88 1040.62 5.96 1040.49 6.04 1040.38 6.12 1037.09 5.94 1035.17 6.13 1032.09 6.82 1030.63 6.43 1028.87 6.16 1026.65 6.15 1027.44 6.17 1027.49 5.97 1028.28 5.99 1026.16 5.48 1024.09 6.14 1021.75 6.14 1021.01 6.05 1020.22 5.95 1019.4 5.86 1019.21 5.82 1019.03 5.77 1018.84 5.71 1018.8 5.74 1018.76 5.76 1018.72 5.79 1018.12 5.72 1017.5 5.66 1016.86 5.6 1017.02 5.56 1017.18 5.51 1017.33 5.46 1016.55 5.12 1015.19 5.23 1013.91 5.39 1012.87 5.34 1011.81 5.31 1010.75 5.31 1010.77 5.16 1010.92 4.95 1011.22 4.65 1010.9 4.93 1010.57 5.15 1010.23 5.32 1008.6 5.35 1006.97 5.46 1005.41 5.71 1005.5 5.57 1005.69 5.32 1006.4 5.14 1003.89 5.5 1001.14 5.44 998.37 5.22 998.38 5.18 998.39 5.15 998.4 5.11 998.3 5.13 998.18 5.16 998.05 5.19 997.29 5.13 996.51 5.06 995.75 4.98 996.19 4.73 996.63 4.49 997.07 4.24 992.71 5.57 988.71 2.97 984.54 3.68 987.94 3.69 988.98 3.92 989.2 4.26 985.77 3.93 982.74 3.85 980.66 4.65 979.17 3.88 977.14 3.18 972.52 3.31 974.41 3.35 977.82 4.17 975.52 4.67 973.23 4.4 970.21 3.9 968.81 3.24 960.83 3.43 970.02 4.52 966.62 5.26 964.16 3.86 962.92 5.5 960.07 6.14 960.01 6.07 959.98 5.98 959.99 5.89 959.72 5.89 959.46 5.89 959.19 5.89 959.19 5.6 959.19 5.32 959.18 5.04 954.79 4.61 954.08 5.21 953.59 5.82 952.5 5.8 951.41 5.78 950.33 5.75 950.9 5.46 951.48 5.17 952.05 4.89 950.63 5.03 949.2 5.17 947.78 5.31 948.08 4.83 948.38 4.36 948.67 3.88 944.02 4.91 942.58 4.63 938.04 4.2 938.42 4.52 938.44 4.91 938.12 5.27 935.46 5.15 932.82 5.02 930.19 4.9 931.26 4.33 932.53 3.96 934.43 4.86 934.68 4.45 935.7 4.08 935.97 3.68 933.02 2.8 928.54 3.43 926.47 3.43 927.27 3.48 928.22 3.56 928.7 3.74 927.25 4.04 925.81 4.33 924.36 4.63 923.07 4.58 921.78 4.52 920.49 4.48 920.7 4.39 920.94 4.3 921.18 4.22 920.64 4.26 920.16 4.34 919.67 4.45 918.52 4.4 917.38 4.37 916.23 4.34 916.63 3.55 917.14 2.83 919.86 2.47 917.23 2.83 914.61 3.2 911.98 3.56 911.45 3.11 907.94 2.31 908.96 1.94 904.6 1.32 898.23 3.87 892.44 3.05 892.14 3.25 891.54 3.44 890.3 3.58 884.86 3.32 880.04 2.04 873.58 3.42 872.36 2.81 871.15 2.19 869.93 1.57 864.87 1.97 874.88 3.91 866.46 4.57 860.5 5.13 864.24 2.99 862.15 2.47 859.18 3.39 854.03 5.26 848.56 3.75 850.37 3.41 851.79 3.68 853.48 3.55 852.09 3.21 850.7 2.86 849.32 2.52 854.35 0.86 858 1.45 854.09 0 853.48 3.55 837.87 0.32 837.28 3.87 836.36 3.61 835.45 3.36 834.53 3.11 835.32 3.15 835.45 2.94 836.22 2.98 831.53 1.47 832.01 4.58 827.53 5.01 826.34 4.81 825.24 4.51 824.4 4.02 824.83 4.36 824.3 4.55 823.33 4.68 822.22 4.41 821.82 4.08 822.92 3.8 821.14 4.09 819.35 4.38 817.57 4.67 816.3 4.61 816.32 4.2 817.2 4.08 814.73 4.16 812.26 4.24 809.78 4.33 809.8 4.29 809.82 4.26 809.84 4.22 809.43 4.42 808.84 4.65 808.19 4.89 806.05 4.94 803.83 4.88 801.55 4.76 802.65 4.47 804.28 4.3 805.77 4.36 801.55 0.81 802.02 5.25 792.91 3.17 794.34 3.02 795.76 2.87 797.18 2.73 794.43 0.71 791.1 1.44 786.28 0.18 787.38 0.81 795.41 3.19 791.45 4.14 790.95 4.12 790.46 4.09 789.96 4.07 789.54 4.03 789.09 4.01 788.6 4.02 787.37 3.98 786.12 3.96 784.88 3.97 784.11 3.4 781.93 3.61 779.34 3.67 779.41 3.11 779.49 2.55 779.56 1.99 776.74 2.38 776.37 3.01 775.26 3.64 774.87 3.73 774.56 3.89 774.28 4.08 770.39 3.92 769.58 2.62 768.66 1.53 762.43 1.27 772.97 3.61 765.59 3.93 760.4 3.29 756.76 3.97 750.55 4.98 746.92 4.41 751.19 3.96 749.89 3.48 748.81 3.93 747.74 4.37 746.67 4.82 745.88 4.79 746.13 4.38 746.26 4.17 745.03 4.41 744.87 4.78 744.67 5.15 741.02 5.23 737.36 5.33 733.69 5.39 732 5.12 730.25 5.03 728.66 5.44 728.21 5.44 727.76 5.44 727.32 5.44 727.12 5.03 728.3 4.58 727.98 4.06 724.24 4.77 722.71 5.02 721.28 5.35 715.05 5.16 708.85 4.65 702.68 3.5 705.69 4.38 703.68 4.47 701.39 4.51 702.38 4.65 702.04 5.11 701.78 5.59 698.99 5.22 696.19 4.86 693.4 4.49 693.21 4.55 693.04 4.61 692.86 4.66 692.69 4.63 692.52 4.6 692.36 4.57 691.23 5.74 687.12 5.41 684.26 5.57 682.85 5.29 683.35 4.71 683.91 4.48 680.87 5.01 677.83 5.55 674.79 6.08 674.99 4.75 672.85 5.1 670.46 4.56 672.28 7.17 663.67 6.33 659.96 7.15 659.73 6.28 660.61 5.37 665.14 5.56 660.13 3.62 658.7 8.67 653.78 7.02 654.89 6.99 655.49 7.13 655.92 6.68 653.34 7.47 647.02 6.89 648.5 6.11 648.87 6.1 649.24 6.1 649.61 6.09 642.26 5.82 627.25 6.2 626.17 8.43 626.09 8.14 627.12 5.74 627.56 5.29 625.44 6.52 623.32 7.75 621.21 8.97 620.82 9.01 620.46 9.07 620.13 9.14 617.83 8.9 614.34 10.48 616.33 9.55 615.63 9.62 614.93 9.69 614.24 9.76 613.77 7.92 613.57 5.98 617.27 5.3 615.52 5.04 613.35 4.74 609.67 5.44 610.86 5.7 612.66 8.18 611.03 8.37 606.54 6.27 607.92 7.25 602.39 5.48 604.18 5.87 602.22 8.88 599.39 8.81 599.83 8.36 599.13 5.85 600.16 5.54 597.93 6.49 595.7 7.44 593.47 8.39 594.69 7.71 593.33 5.98 591.87 5.21 592.6 5.79 585.78 5.21 583.91 5.52 584.91 5.73 585.9 5.95 586.9 6.17 580.35 5.86 579.28 8.92 574.7 9.95 574.55 9.78 574.41 9.61 574.27 9.43 573.59 9.51 572.77 9.52 571.88 9.49 572.51 8.33 572.58 6.45 569.53 6.19 568.86 6.75 567.59 7.88 565.92 9.15 564.61 9.12 563.56 9.21 563.09 9.57 562.31 8.98 561.1 8.62 559.64 8.43 561.81 7.39 563.88 6.47 565.52 5.86 562.54 5.2 564.68 4.85 560.23 4.97 558.65 4.18 562.65 3.72 563.95 3.66 560.5 3.52 557.04 3.38 553.59 3.24 554.06 4.99 545.68 5.08 546.09 6.54 549.83 5.89 553.58 5.25 557.33 4.61 557.61 5.67 555.19 7.29 551.61 8.35 548.49 8.52 545.36 8.77 542.94 8.75 542.91 7.74 544.85 6.15 544.73 5.69 543.78 6.31 537.77 6.92 537.09 6.49 538.13 6.17 539.16 5.85 540.2 5.52 536.11 4.9 533.55 7.92 528.62 6.29 526.93 6.2 523.54 4.08 523.26 5.13 525.22 6.52 526.09 9.99 525.81 12.47 524.01 12.47 521.98 12.27 519.82 12.06 519.98 11.6 520.14 11.13 520.3 10.67 519.93 10.68 519.56 10.69 519.19 10.7 519.22 11.14 519.25 11.57 519.28 12.01 517.4 11.83 515.44 11.66 513.44 11.62 513.37 11.53 513.32 11.43 513.3 11.32 513.83 11.35 514.38 11.43 514.87 11.53 514.34 11.36 513.81 11.23 513.28 11.12 513.4 9.69 517.66 8 515.72 6.92 515.62 7.4 514.08 8.01 513.44 8.2 511.66 7.81 514.16 6.71 510.3 6.97 509.67 8.76 502.43 6.91 508.49 8.5 504.71 9.05 504.46 8.17 500.02 8.3 501.16 9.21 497.96 11.2 494.7 12.24 493.75 12.24 492.83 12.18 491.92 12.03 491.69 11.82 491.42 11.64 491.23 11.52 488.46 11.5 486.14 11.38 483.98 11.25 483.86 11.23 483.76 11.2 483.64 11.18 483.71 11.2 483.77 11.22 483.83 11.24 482.5 11.16 481.22 11.08 479.92 11 481.42 10.87 482.61 10.97 483.64 11.18 481.06 10.24 478.17 8.78 478.5 9.94 478.74 10.28 478.98 10.62 479.22 10.96 477.04 10.83 474.77 10.74 472.07 10.77 471.4 10.35 467.91 9.87 469.38 9.09 468.35 9.41 467.4 10.03 465.17 10.1 460.83 8.62 470.14 9.8 466.82 7.99 466.56 9.03 461.07 9.49 457.9 10.18 458.9 11.77 465.25 10.39 468.42 9.71 468.44 10.74 467.25 11.81 465.2 12.77 462.34 13.2 458.19 13.55 456.81 14.77 455.11 14.61 453.41 14.45 451.81 14.65 451.94 14.41 452.11 14.24 451.75 14.35 451.05 14.34 450.41 14.34 449.8 14.36 449.6 14.04 449.4 13.72 449.2 13.4 448.26 13.82 447.31 14.24 446.36 14.66 445.2 14.85 444.25 15.11 443.43 15.38 441.66 14.82 440.74 14.37 441.36 13.74 441.76 13.76 442.17 13.78 442.6 13.76 442.24 13.71 441.87 13.66 441.51 13.6 441.79 13.38 442.23 13.14 442.88 12.87 442 13.11 441.24 13.3 440.58 13.46 439.89 13.36 439.2 13.26 438.51 13.16 440.06 12.67 443.32 12.27 445.1 12.65 441.97 11.43 426.04 12.67 417.32 11.64 415.78 12.13 413.11 12.66 414.39 13.21 415.3 13.13 416.22 13.05 417.14 12.97 418.59 13.59 416.71 14.04 415.47 14.4 409.1 14.3 400.56 14.62 392.96 14.27 393.38 13.95 393.79 13.63 394.21 13.3 393.44 13.23 392.67 13.16 391.9 13.09 392.18 13.48 392.46 13.87 392.74 14.26 390.54 14.16 388.41 14 386.45 13.75 388.03 15.62 385.32 14.67 382.95 14.26 384.04 13.8 384.85 13.28 384.45 12.61 383.03 12.85 381.6 13.1 380.18 13.34 380.09 13.05 381.64 12.55 380.44 12.3 380.37 12.59 379.99 12.87 379.41 13.12 373.89 13.78 370.67 12.59 367.06 13.54 366.88 13.48 366.58 13.43 366.15 13.39 365.89 13.47 365.61 13.48 365.34 13.49 365.72 13.19 366.35 12.95 365.94 12.7 365.42 12.86 363.88 13.36 363.2 12.94 362.52 12.52 364.14 12.32 365.17 11.99 358.5 12.22 357.87 14.46 357.42 16.55 354.03 15.62 352.34 15.79 349.93 17.2 348.74 16.54 346.77 15.86 350.9 15.54 348.57 15.48 336.65 14.8 336.45 16.47 335.71 16.06 333.19 16.41 332.58 16.61 330.3 16.61 328.92 16.59 327.67 16.58 327.17 16.21 326.54 15.85 325.68 15.44 325.16 15.62 324.74 16.08 323.04 16.03 321.56 15.75 323.03 15.49 322.94 15.12 321.92 15.46 319.38 16.06 322.62 16.49 322.78 16.43 322.95 16.38 323.12 16.32 323.71 16.38 324.34 16.47 324.96 16.6 324.09 16.62 323.08 16.66 321.75 16.73 322.23 16.81 322.71 16.89 323.18 16.97 322.42 17.75 321.62 18.02 320.7 18.06 320.56 17.85 320.05 17.64 318.96 17.43 318.64 17.61 318.51 17.77 318.46 17.93 317.42 17.82 316.22 17.71 314.79 17.82 314.83 17.75 314.87 17.68 314.9 17.61 305.39 16.34 310.82 18.39 301.43 16.91 301.61 17.33 301.78 17.74 301.96 18.16 301.14 20.87 293.64 16.73 288.22 17.87 288.88 18.1 289.54 18.32 290.2 18.55 287.25 19.53 281.83 15.05 278.84 14.78 278.19 14.56 279.86 14.38 280.77 14.19 272.93 12.76 279.79 15.85 273.98 16.35 272.89 15.49 275.32 14.07 271.4 13.99 269.44 13.31 260.11 17.1 254.73 15.52 255.93 16.18 257.11 16.84 254.42 17.41 250.29 17.74 243.17 15.07 239.48 17.31 238.95 17.13 238.75 16.96 238.72 16.79 235.57 17.42 228.46 17.94 226.58 19.16 223.56 14.89 206.96 21.72 206.94 17.72 203.7 17.87 200.45 18.02 197.21 18.17 197.29 18.03 197.37 17.89 197.46 17.76 191.23 17.64 189.05 18.65 186.89 19.67 185.44 19.43 186.49 19.03 186.6 18.82 177.49 18.24 176.59 18.43 169.02 20.61 168.74 20.19 168.47 19.76 168.19 19.34 166.15 20.14 155 17.64 146.12 19.38 146.21 19.23 146.39 18.98 147.09 18.78 137.1 20.56 122.98 15.82 119.43 20.64 117.24 21.09 115.04 21.54 112.84 21.99 121.42 22.12 111.63 24.07 115.17 24.76 111.81 25.12 106.42 23.57 110.56 23.22 110.77 23.29 110.99 23.36 111.21 23.43 112.66 20.93 100.55 22.86 100.73 21.18 83.88 21.77 67.42 20.89 51.63 21.26 52.26 21.88 52.88 22.5 53.51 23.12 51.67 23.14 49.84 23.16 48 23.18 46.54 22.77 46.02 21.74 49.95 21.7 47.85 20.68 43.39 22.81 43.29 23.23 35.57 22.69 46.22 20.9 43.86 20.93 42.8 21.01 41.73 21.09 40.67 21.17 40.91 21.24 41.15 21.31 41.39 21.37 38.82 22.23 38.62 23.07 33.89 23.12 30.9 22.83 32.33 21.99 31.15 21.95 31.15 21.81 30.75 21.76 29.34 21.95 27.03 21.97 24.72 21.99 22.4 22 23.34 22.48 24.28 22.95 25.22 23.43 22.17 24.27 18.7 23.55 21.95 25.16 17.17 22.67-3.95 25.04-6.86 24.32-7.57 24.52-8.28 24.69-9 24.84-9 24.84-9 785-9 785-9 785 1929 785 1929 785ZM 1209.59 9.19C 1209.02 9.48 1208.4 9.69 1207.7 9.82 1207.51 9.53 1207.89 9.3 1209.59 9.19ZM 672.56 6.13C 674.79 7.54 678.56 6.1 682.68 5.75 682.07 5.87 681.62 6.07 681.44 6.39 682.42 6.28 683.4 6.18 684.38 6.08 683.32 6.61 683.24 7.17 683.67 7.75 680.4 8.74 676.68 9.59 671.92 9.99 674.36 8.61 672.43 7.75 672.56 6.13Z" fill="rgb(109,171,91)"/></svg>