<!-- Generated by IcoMoon.io -->
<svg version="1.1" xmlns="http://www.w3.org/2000/svg" width="42" height="32" viewBox="0 0 42 32">
<title>garage-truck</title>
<path fill="#517d2d" d="M41.566 17.755l-3.012-1.32c-0.438-4.473-4.18-7.94-8.732-7.94-0.004 0-0.008 0-0.012 0h-1.172v-2.55c-0.002-0.643-0.524-1.163-1.167-1.163-0.002 0-0.004 0-0.006 0h-2.903c-0.323 0.002-0.616 0.131-0.832 0.338l0-0-2.063 1.816c-0.276-2.413-2.306-4.27-4.77-4.27-0.389 0-0.766 0.046-1.128 0.133l0.033-0.007c-1.003-1.677-2.81-2.783-4.875-2.783-2.271 0-4.231 1.338-5.133 3.268l-0.015 0.035c-1.683 0.463-2.943 1.868-3.184 3.6l-0.003 0.023h-1.415c-0.002 0-0.004-0-0.006-0-0.643 0-1.165 0.52-1.167 1.163v19.413c0.002 0.643 0.524 1.163 1.167 1.163 0.002 0 0.004 0 0.006-0h5.524c0.542 1.933 2.288 3.327 4.36 3.327s3.818-1.394 4.352-3.295l0.008-0.032h15.117c0.542 1.933 2.288 3.327 4.36 3.327s3.818-1.394 4.352-3.295l0.008-0.032h1.839c0.002 0 0.004 0 0.006 0 0.643 0 1.165-0.52 1.167-1.163v-8.692c-0.005-0.473-0.288-0.878-0.694-1.061l-0.007-0.003zM6.715 5.514c0.487-0.039 0.888-0.37 1.030-0.817l0.002-0.008c0.431-1.363 1.684-2.333 3.164-2.333 1.455 0 2.691 0.939 3.136 2.244l0.007 0.023c0.165 0.471 0.606 0.802 1.124 0.802 0.194 0 0.377-0.046 0.538-0.129l-0.007 0.003c0.333-0.174 0.727-0.276 1.144-0.276 1.182 0 2.173 0.818 2.438 1.918l0.003 0.017h-14.335c0.23-0.791 0.916-1.372 1.748-1.444l0.007-0.001zM11.066 29.681c-1.181-0.011-2.135-0.971-2.135-2.154 0-1.19 0.964-2.154 2.154-2.154s2.154 0.964 2.154 2.154v0c-0.006 1.191-0.973 2.154-2.165 2.154-0.003 0-0.007 0-0.010-0h0.001zM26.281 26.36h-10.856c-0.546-1.929-2.29-3.318-4.36-3.318s-3.814 1.39-4.352 3.287l-0.008 0.032h-4.359v-5.175h2.155c0.008 0 0.017 0 0.027 0 0.643 0 1.164-0.521 1.164-1.164s-0.521-1.164-1.164-1.164c-0.009 0-0.019 0-0.028 0l0.001-0h-2.155v-2.072h4.368c0.643 0 1.164-0.521 1.164-1.164s-0.521-1.164-1.164-1.164h-4.368v-5.175h20.025c0.323-0.002 0.616-0.131 0.832-0.339l-0 0 1.838-1.816h1.248v19.231zM28.627 10.826h1.173c0.002 0 0.004 0 0.006 0 3.123 0 5.725 2.225 6.31 5.176l0.007 0.041h-7.495zM34.892 29.678c-1.181-0.011-2.135-0.971-2.135-2.154 0-1.19 0.965-2.154 2.154-2.154s2.154 0.964 2.154 2.154v0c-0.004 1.192-0.972 2.157-2.165 2.157-0.003 0-0.006 0-0.009-0h0zM39.917 26.357h-0.664c-0.546-1.929-2.29-3.318-4.36-3.318s-3.814 1.39-4.352 3.287l-0.008 0.032h-1.905v-7.981h8.536l2.754 1.208v6.776z"></path>
</svg>
