<?xml version="1.0" encoding="utf-8"?>
<svg xmlns="http://www.w3.org/2000/svg"
	xmlns:xlink="http://www.w3.org/1999/xlink"
	width="15px" height="15px" viewBox="0 0 15 15">
<path fillRule="evenodd" d="M 13.83 15C 6.2 15 0 8.8 0 1.19 0 0.53 0.53 0 1.19 0 1.19 0 3.95 0 3.95 0 4.6 0 5.14 0.53 5.14 1.19 5.14 2.11 5.28 3.02 5.57 3.88 5.7 4.31 5.59 4.77 5.27 5.09 5.27 5.09 4.02 6.75 4.02 6.75 5.05 8.69 6.3 9.94 8.26 10.98 8.26 10.98 9.96 9.7 9.96 9.7 10.21 9.43 10.72 9.31 11.13 9.45 11.99 9.73 12.9 9.88 13.83 9.88 14.48 9.88 15.01 10.41 15.01 11.06 15.01 11.06 15.01 13.82 15.01 13.82 15.01 14.47 14.48 15 13.83 15ZM 9.09 3.16C 10.61 3.16 11.85 4.4 11.85 5.92 11.85 6.14 11.67 6.32 11.46 6.32 11.24 6.32 11.06 6.14 11.06 5.92 11.06 4.83 10.18 3.95 9.09 3.95 8.87 3.95 8.69 3.77 8.69 3.55 8.69 3.34 8.87 3.16 9.09 3.16ZM 14.62 6.32C 14.4 6.32 14.22 6.14 14.22 5.92 14.22 3.09 11.92 0.79 9.09 0.79 8.87 0.79 8.69 0.61 8.69 0.4 8.69 0.18 8.87 0 9.09 0 12.35 0 15.01 2.66 15.01 5.92 15.01 6.14 14.83 6.32 14.62 6.32Z" fill="rgb(109,171,91)"/></svg>