<?xml version="1.0" encoding="utf-8"?>
<svg xmlns="http://www.w3.org/2000/svg"
	xmlns:xlink="http://www.w3.org/1999/xlink"
	width="21px" height="20px" viewBox="0 0 21 20">
<path fillRule="evenodd" d="M 20.8 10.46C 20.75 11.01 20.67 11.55 20.54 12.09 20.36 12.82 20.09 13.52 19.75 14.19 19.47 14.74 19.13 15.25 18.76 15.73 18.38 16.2 17.97 16.64 17.52 17.04 17.14 17.37 16.73 17.68 16.3 17.95 15.81 18.26 15.3 18.53 14.77 18.75 14.14 19.01 13.49 19.2 12.82 19.32 12.34 19.4 11.85 19.47 11.36 19.48 10.51 19.51 9.67 19.42 8.83 19.24 8.01 19.05 7.22 18.76 6.47 18.38 6.41 18.34 6.34 18.31 6.28 18.27 6.21 18.29 6.15 18.31 6.09 18.33 5.79 18.43 5.49 18.52 5.2 18.62 4.45 18.85 3.71 19.09 2.96 19.33 2.39 19.51 1.82 19.69 1.25 19.87 1.13 19.91 1.02 19.96 0.91 20 0.89 20 0.87 20 0.85 20 0.85 19.98 0.85 19.96 0.85 19.94 0.86 19.91 0.88 19.89 0.89 19.86 1.02 19.48 1.15 19.11 1.27 18.74 1.41 18.33 1.56 17.92 1.7 17.5 1.84 17.07 1.99 16.63 2.13 16.19 2.28 15.76 2.42 15.33 2.57 14.91 2.61 14.81 2.6 14.74 2.55 14.65 2.42 14.41 2.29 14.16 2.16 13.91 1.98 13.56 1.85 13.2 1.72 12.83 1.58 12.45 1.48 12.05 1.4 11.65 1.3 11.12 1.24 10.59 1.22 10.05 1.18 9.28 1.27 8.52 1.41 7.77 1.52 7.25 1.67 6.74 1.87 6.24 2.13 5.56 2.46 4.93 2.87 4.32 3.08 4 3.32 3.7 3.58 3.4 3.93 2.99 4.32 2.6 4.75 2.25 5.16 1.91 5.6 1.61 6.06 1.34 6.6 1.02 7.16 0.77 7.74 0.56 8.47 0.3 9.24 0.13 10.02 0.05 10.14 0.04 10.27 0.02 10.39-0 10.81-0 11.22-0 11.64-0 11.66 0.01 11.68 0.02 11.71 0.02 11.91 0.05 12.12 0.07 12.33 0.09 12.8 0.14 13.27 0.25 13.73 0.38 14.32 0.55 14.88 0.77 15.43 1.04 15.96 1.31 16.46 1.62 16.93 1.97 17.41 2.33 17.86 2.73 18.27 3.18 18.78 3.74 19.22 4.34 19.59 5.01 19.9 5.56 20.16 6.15 20.35 6.75 20.59 7.49 20.73 8.24 20.8 9 20.8 9.05 20.82 9.09 20.83 9.14 20.83 9.54 20.83 9.95 20.83 10.35 20.82 10.39 20.8 10.42 20.8 10.46ZM 19.18 8.59C 19.12 8.18 19.04 7.79 18.92 7.39 18.79 6.96 18.63 6.54 18.42 6.14 18.29 5.89 18.15 5.65 18.01 5.42 17.83 5.1 17.6 4.82 17.37 4.54 17.25 4.38 17.11 4.23 16.97 4.09 16.72 3.85 16.48 3.6 16.21 3.39 15.89 3.13 15.54 2.89 15.18 2.68 14.83 2.47 14.45 2.29 14.07 2.14 13.65 1.96 13.22 1.84 12.78 1.74 12.36 1.65 11.94 1.59 11.52 1.57 10.75 1.54 9.99 1.58 9.23 1.75 8.48 1.92 7.77 2.18 7.09 2.55 6.53 2.85 6.01 3.22 5.53 3.65 5.24 3.91 4.96 4.19 4.71 4.49 4.43 4.82 4.18 5.17 3.95 5.54 3.52 6.22 3.22 6.96 3.02 7.74 2.83 8.49 2.75 9.25 2.78 10.02 2.8 10.53 2.87 11.04 2.98 11.54 3.07 11.98 3.21 12.4 3.38 12.81 3.58 13.32 3.83 13.8 4.14 14.24 4.21 14.34 4.28 14.45 4.34 14.55 4 15.55 3.66 16.55 3.31 17.59 4.39 17.25 5.43 16.91 6.47 16.58 6.51 16.6 6.53 16.61 6.55 16.62 6.93 16.85 7.3 17.06 7.71 17.24 8.61 17.63 9.55 17.86 10.54 17.91 11.3 17.95 12.05 17.9 12.79 17.74 13.56 17.57 14.28 17.3 14.96 16.93 15.52 16.63 16.04 16.27 16.51 15.84 16.88 15.5 17.22 15.14 17.53 14.75 17.87 14.32 18.15 13.86 18.4 13.38 18.68 12.85 18.88 12.3 19.02 11.73 19.14 11.26 19.21 10.79 19.24 10.31 19.28 9.73 19.27 9.16 19.18 8.59ZM 15.83 13.1C 15.73 13.37 15.54 13.56 15.32 13.74 15.1 13.91 14.86 14.05 14.6 14.14 14.12 14.32 13.63 14.39 13.12 14.26 12.58 14.12 12.06 13.93 11.54 13.74 11.01 13.55 10.51 13.3 10.04 12.98 9.62 12.7 9.22 12.39 8.87 12.03 8.61 11.76 8.35 11.5 8.1 11.22 7.88 10.96 7.68 10.69 7.48 10.43 7.34 10.24 7.21 10.05 7.08 9.86 6.69 9.32 6.41 8.73 6.29 8.08 6.2 7.61 6.22 7.14 6.38 6.68 6.54 6.2 6.82 5.82 7.19 5.49 7.34 5.36 7.52 5.3 7.72 5.3 7.8 5.3 7.89 5.3 7.97 5.3 7.97 5.3 7.97 5.3 7.97 5.31 8.07 5.31 8.17 5.3 8.26 5.31 8.4 5.32 8.53 5.36 8.6 5.5 8.71 5.73 8.82 5.95 8.92 6.18 9.07 6.55 9.22 6.92 9.38 7.29 9.41 7.37 9.45 7.46 9.49 7.55 9.53 7.67 9.54 7.78 9.48 7.89 9.4 8.04 9.32 8.18 9.23 8.31 9.11 8.47 8.98 8.62 8.84 8.76 8.7 8.9 8.7 9.09 8.8 9.25 9.08 9.7 9.39 10.12 9.75 10.51 10.01 10.78 10.3 11.02 10.6 11.25 11.03 11.58 11.52 11.81 12.01 12.03 12.06 12.06 12.11 12.08 12.17 12.1 12.33 12.14 12.46 12.11 12.57 11.98 12.82 11.68 13.06 11.38 13.3 11.08 13.33 11.04 13.37 11.01 13.4 10.97 13.48 10.88 13.58 10.85 13.69 10.88 13.87 10.95 14.06 11.02 14.24 11.1 14.71 11.32 15.19 11.54 15.66 11.78 15.97 11.94 16.02 11.93 16 12.34 15.98 12.6 15.93 12.86 15.83 13.1Z" fill="rgb(109,171,91)"/></svg>